0000.000 (0) Opened log file at time: Tue, 28 May 2024 15:07:08 +0000 on http://localhost/restaurant
0000.003 (0) UpdraftPlus WordPress backup plugin (https://updraftplus.com): 1.24.3 WP: 6.5.3 PHP: 8.0.30 (apache2handler, Windows NT JAMILA 10.0 build 22631 (Windows 10) AMD64) MySQL: 10.4.32-MariaDB (max packet size=1048576) WPLANG: fr_FR Server: Apache/2.4.58 (Win64) OpenSSL/3.1.3 PHP/8.0.30 safe_mode: 0 max_execution_time: 900 memory_limit: 512M (used: 42.1M | 44M) multisite: N openssl: OpenSSL 1.1.1t  7 Feb 2023 mcrypt: N LANG:  ZipArchive::addFile: Y
0000.004 (0) Free space on disk containing Updraft's temporary directory: 375294.5 MB
0000.007 (0) Tasks: Backup files: 1 (schedule: daily) Backup DB:  (schedule: daily)
0000.009 (0) Processed schedules. Combining jobs from identical schedules. Tasks now: Backup files: 1 Backup DB: 1
0000.029 (0) Requesting semaphore lock (fd) (apparently via scheduler: last_scheduled_action_called_at=1716831202, seconds_ago=77626)
0000.035 (0) Set semaphore last lock (fd) time to 2024-05-28 15:07:08
0000.037 (0) Semaphore lock (fd) complete
0000.045 (0) Backup run: resumption=0, nonce=895f87516211, file_nonce=895f87516211 begun at=1716908828 (0s ago), job type=backup
0000.049 (0) Scheduling a resumption (1) after 600 seconds (1716909428) in case this run gets aborted
0000.090 (0) Checking if we have a zip executable available
0000.095 (0) Creation of backups of directories: beginning
0000.101 (0) Beginning creation of dump of plugins (split every: 400 MB)
0009.536 (0) Total entities for the zip file: 2668 directories, 14704 files (0 skipped as non-modified), 206.3 MB
0009.544 (0) Adding batch to zip file (UpdraftPlus_ZipArchive): over 2.0 seconds have passed since the last write (0 MB, 1 (1) files added so far); re-opening (prior size: 0 KB)
0009.677 (0) Zip: backup_2024-05-28-1707_restaurant_895f87516211-plugins.zip.tmp: 100 files added (on-disk size: 478.7 KB)
0009.703 (0) Zip: backup_2024-05-28-1707_restaurant_895f87516211-plugins.zip.tmp: 200 files added (on-disk size: 478.7 KB)
0009.731 (0) Zip: backup_2024-05-28-1707_restaurant_895f87516211-plugins.zip.tmp: 300 files added (on-disk size: 478.7 KB)
0009.758 (0) Zip: backup_2024-05-28-1707_restaurant_895f87516211-plugins.zip.tmp: 400 files added (on-disk size: 478.7 KB)
0009.797 (0) Zip: backup_2024-05-28-1707_restaurant_895f87516211-plugins.zip.tmp: 500 files added (on-disk size: 478.7 KB)
0009.825 (0) Zip: backup_2024-05-28-1707_restaurant_895f87516211-plugins.zip.tmp: 600 files added (on-disk size: 478.7 KB)
0009.852 (0) Zip: backup_2024-05-28-1707_restaurant_895f87516211-plugins.zip.tmp: 700 files added (on-disk size: 478.7 KB)
0009.878 (0) Zip: backup_2024-05-28-1707_restaurant_895f87516211-plugins.zip.tmp: 800 files added (on-disk size: 478.7 KB)
0009.905 (0) Zip: backup_2024-05-28-1707_restaurant_895f87516211-plugins.zip.tmp: 900 files added (on-disk size: 478.7 KB)
0009.932 (0) Zip: backup_2024-05-28-1707_restaurant_895f87516211-plugins.zip.tmp: 1000 files added (on-disk size: 478.7 KB)
0009.934 (0) Adding batch to zip file (UpdraftPlus_ZipArchive): over 1000 files added on this batch (17.3 MB, 14704 files batched, 1001 (1002) added so far); re-opening (prior size: 478.7 KB)
0059.194 (0) Zip: backup_2024-05-28-1707_restaurant_895f87516211-plugins.zip.tmp: 1100 files added (on-disk size: 8434.7 KB)
0059.224 (0) Zip: backup_2024-05-28-1707_restaurant_895f87516211-plugins.zip.tmp: 1200 files added (on-disk size: 8434.7 KB)
0059.255 (0) Zip: backup_2024-05-28-1707_restaurant_895f87516211-plugins.zip.tmp: 1300 files added (on-disk size: 8434.7 KB)
0059.286 (0) Zip: backup_2024-05-28-1707_restaurant_895f87516211-plugins.zip.tmp: 1400 files added (on-disk size: 8434.7 KB)
0059.316 (0) Zip: backup_2024-05-28-1707_restaurant_895f87516211-plugins.zip.tmp: 1500 files added (on-disk size: 8434.7 KB)
0059.362 (0) Zip: backup_2024-05-28-1707_restaurant_895f87516211-plugins.zip.tmp: 1600 files added (on-disk size: 8434.7 KB)
0059.395 (0) Zip: backup_2024-05-28-1707_restaurant_895f87516211-plugins.zip.tmp: 1700 files added (on-disk size: 8434.7 KB)
0059.426 (0) Zip: backup_2024-05-28-1707_restaurant_895f87516211-plugins.zip.tmp: 1800 files added (on-disk size: 8434.7 KB)
0059.456 (0) Zip: backup_2024-05-28-1707_restaurant_895f87516211-plugins.zip.tmp: 1900 files added (on-disk size: 8434.7 KB)
0059.487 (0) Zip: backup_2024-05-28-1707_restaurant_895f87516211-plugins.zip.tmp: 2000 files added (on-disk size: 8434.7 KB)
0059.491 (0) Adding batch to zip file (UpdraftPlus_ZipArchive): over 1000 files added on this batch (6.8 MB, 14704 files batched, 1001 (2003) added so far); re-opening (prior size: 8434.7 KB)
0099.058 (0) Zip: backup_2024-05-28-1707_restaurant_895f87516211-plugins.zip.tmp: 2100 files added (on-disk size: 10352 KB)
0099.092 (0) Zip: backup_2024-05-28-1707_restaurant_895f87516211-plugins.zip.tmp: 2200 files added (on-disk size: 10352 KB)
0099.126 (0) Zip: backup_2024-05-28-1707_restaurant_895f87516211-plugins.zip.tmp: 2300 files added (on-disk size: 10352 KB)
0099.162 (0) Zip: backup_2024-05-28-1707_restaurant_895f87516211-plugins.zip.tmp: 2400 files added (on-disk size: 10352 KB)
0099.201 (0) Zip: backup_2024-05-28-1707_restaurant_895f87516211-plugins.zip.tmp: 2500 files added (on-disk size: 10352 KB)
0099.234 (0) Zip: backup_2024-05-28-1707_restaurant_895f87516211-plugins.zip.tmp: 2600 files added (on-disk size: 10352 KB)
0099.281 (0) Zip: backup_2024-05-28-1707_restaurant_895f87516211-plugins.zip.tmp: 2700 files added (on-disk size: 10352 KB)
0099.317 (0) Zip: backup_2024-05-28-1707_restaurant_895f87516211-plugins.zip.tmp: 2800 files added (on-disk size: 10352 KB)
0099.355 (0) Zip: backup_2024-05-28-1707_restaurant_895f87516211-plugins.zip.tmp: 2900 files added (on-disk size: 10352 KB)
0099.392 (0) Zip: backup_2024-05-28-1707_restaurant_895f87516211-plugins.zip.tmp: 3000 files added (on-disk size: 10352 KB)
0099.396 (0) Adding batch to zip file (UpdraftPlus_ZipArchive): over 1000 files added on this batch (3.2 MB, 14704 files batched, 1001 (3004) added so far); re-opening (prior size: 10352 KB)
0129.164 (0) Zip: backup_2024-05-28-1707_restaurant_895f87516211-plugins.zip.tmp: 3100 files added (on-disk size: 11580.3 KB)
0129.204 (0) Zip: backup_2024-05-28-1707_restaurant_895f87516211-plugins.zip.tmp: 3200 files added (on-disk size: 11580.3 KB)
0129.245 (0) Zip: backup_2024-05-28-1707_restaurant_895f87516211-plugins.zip.tmp: 3300 files added (on-disk size: 11580.3 KB)
0129.279 (0) Zip: backup_2024-05-28-1707_restaurant_895f87516211-plugins.zip.tmp: 3400 files added (on-disk size: 11580.3 KB)
0129.320 (0) Zip: backup_2024-05-28-1707_restaurant_895f87516211-plugins.zip.tmp: 3500 files added (on-disk size: 11580.3 KB)
0129.346 (0) Adding batch to zip file (UpdraftPlus_ZipArchive): over 25 MB added on this batch (25.5 MB, 14704 files batched, 566 (3570) added so far); re-opening (prior size: 11580.3 KB)
0158.366 (0) A useful amount of data was added after this amount of zip processing: 29.6 s (normalised: 29 s, rate: 881.9 KB/s)
0158.413 (0) Zip: backup_2024-05-28-1707_restaurant_895f87516211-plugins.zip.tmp: 3600 files added (on-disk size: 16789.4 KB)
0158.448 (0) Zip: backup_2024-05-28-1707_restaurant_895f87516211-plugins.zip.tmp: 3700 files added (on-disk size: 16789.4 KB)
0158.518 (0) Zip: backup_2024-05-28-1707_restaurant_895f87516211-plugins.zip.tmp: 3800 files added (on-disk size: 16789.4 KB)
0158.563 (0) Zip: backup_2024-05-28-1707_restaurant_895f87516211-plugins.zip.tmp: 3900 files added (on-disk size: 16789.4 KB)
0158.602 (0) Zip: backup_2024-05-28-1707_restaurant_895f87516211-plugins.zip.tmp: 4000 files added (on-disk size: 16789.4 KB)
0158.635 (0) Zip: backup_2024-05-28-1707_restaurant_895f87516211-plugins.zip.tmp: 4100 files added (on-disk size: 16789.4 KB)
0158.670 (0) Zip: backup_2024-05-28-1707_restaurant_895f87516211-plugins.zip.tmp: 4200 files added (on-disk size: 16789.4 KB)
0158.702 (0) Zip: backup_2024-05-28-1707_restaurant_895f87516211-plugins.zip.tmp: 4300 files added (on-disk size: 16789.4 KB)
0158.735 (0) Zip: backup_2024-05-28-1707_restaurant_895f87516211-plugins.zip.tmp: 4400 files added (on-disk size: 16789.4 KB)
0158.788 (0) Zip: backup_2024-05-28-1707_restaurant_895f87516211-plugins.zip.tmp: 4500 files added (on-disk size: 16789.4 KB)
0158.811 (0) Adding batch to zip file (UpdraftPlus_ZipArchive): over 1000 files added on this batch (16 MB, 14704 files batched, 1001 (4571) added so far); re-opening (prior size: 16789.4 KB)
0218.477 (0) Zip: backup_2024-05-28-1707_restaurant_895f87516211-plugins.zip.tmp: 4600 files added (on-disk size: 22470.6 KB)
0218.557 (0) Zip: backup_2024-05-28-1707_restaurant_895f87516211-plugins.zip.tmp: 4700 files added (on-disk size: 22470.6 KB)
0218.617 (0) Zip: backup_2024-05-28-1707_restaurant_895f87516211-plugins.zip.tmp: 4800 files added (on-disk size: 22470.6 KB)
0218.667 (0) Zip: backup_2024-05-28-1707_restaurant_895f87516211-plugins.zip.tmp: 4900 files added (on-disk size: 22470.6 KB)
0218.719 (0) Zip: backup_2024-05-28-1707_restaurant_895f87516211-plugins.zip.tmp: 5000 files added (on-disk size: 22470.6 KB)
0218.809 (0) Zip: backup_2024-05-28-1707_restaurant_895f87516211-plugins.zip.tmp: 5100 files added (on-disk size: 22470.6 KB)
0218.888 (0) Zip: backup_2024-05-28-1707_restaurant_895f87516211-plugins.zip.tmp: 5200 files added (on-disk size: 22470.6 KB)
0219.031 (0) Zip: backup_2024-05-28-1707_restaurant_895f87516211-plugins.zip.tmp: 5300 files added (on-disk size: 22470.6 KB)
0219.167 (0) Zip: backup_2024-05-28-1707_restaurant_895f87516211-plugins.zip.tmp: 5400 files added (on-disk size: 22470.6 KB)
0219.235 (0) Zip: backup_2024-05-28-1707_restaurant_895f87516211-plugins.zip.tmp: 5500 files added (on-disk size: 22470.6 KB)
0219.268 (0) Adding batch to zip file (UpdraftPlus_ZipArchive): over 25 MB added on this batch (25 MB, 14704 files batched, 976 (5547) added so far); re-opening (prior size: 22470.6 KB)
0262.274 (0) A useful amount of data was added after this amount of zip processing: 44.5 s (normalised: 44.5 s, rate: 575.8 KB/s)
0262.279 (0) Performance is good - will increase the amount of data we attempt to batch (time=44.472472906113, normalised_time=44.461675671489, max_time=262.27612400055, data points known=1, old_max_bytes=26214400, new_max_bytes=92782079)
0262.404 (0) Zip: backup_2024-05-28-1707_restaurant_895f87516211-plugins.zip.tmp: 5600 files added (on-disk size: 36975.9 KB)
0262.494 (0) Zip: backup_2024-05-28-1707_restaurant_895f87516211-plugins.zip.tmp: 5700 files added (on-disk size: 36975.9 KB)
0262.599 (0) Zip: backup_2024-05-28-1707_restaurant_895f87516211-plugins.zip.tmp: 5800 files added (on-disk size: 36975.9 KB)
0262.702 (0) Zip: backup_2024-05-28-1707_restaurant_895f87516211-plugins.zip.tmp: 5900 files added (on-disk size: 36975.9 KB)
0262.806 (0) Zip: backup_2024-05-28-1707_restaurant_895f87516211-plugins.zip.tmp: 6000 files added (on-disk size: 36975.9 KB)
0262.961 (0) Zip: backup_2024-05-28-1707_restaurant_895f87516211-plugins.zip.tmp: 6100 files added (on-disk size: 36975.9 KB)
0263.114 (0) Zip: backup_2024-05-28-1707_restaurant_895f87516211-plugins.zip.tmp: 6200 files added (on-disk size: 36975.9 KB)
0263.227 (0) Zip: backup_2024-05-28-1707_restaurant_895f87516211-plugins.zip.tmp: 6300 files added (on-disk size: 36975.9 KB)
0263.332 (0) Zip: backup_2024-05-28-1707_restaurant_895f87516211-plugins.zip.tmp: 6400 files added (on-disk size: 36975.9 KB)
0263.424 (0) Zip: backup_2024-05-28-1707_restaurant_895f87516211-plugins.zip.tmp: 6500 files added (on-disk size: 36975.9 KB)
0263.471 (0) Adding batch to zip file (UpdraftPlus_ZipArchive): over 1000 files added on this batch (13.4 MB, 14704 files batched, 1001 (6548) added so far); re-opening (prior size: 36975.9 KB)
0321.585 (0) Zip: backup_2024-05-28-1707_restaurant_895f87516211-plugins.zip.tmp: 6600 files added (on-disk size: 40482.2 KB)
0321.762 (0) Zip: backup_2024-05-28-1707_restaurant_895f87516211-plugins.zip.tmp: 6700 files added (on-disk size: 40482.2 KB)
0321.813 (0) Zip: backup_2024-05-28-1707_restaurant_895f87516211-plugins.zip.tmp: 6800 files added (on-disk size: 40482.2 KB)
0321.859 (0) Zip: backup_2024-05-28-1707_restaurant_895f87516211-plugins.zip.tmp: 6900 files added (on-disk size: 40482.2 KB)
0321.903 (0) Zip: backup_2024-05-28-1707_restaurant_895f87516211-plugins.zip.tmp: 7000 files added (on-disk size: 40482.2 KB)
0321.952 (0) Zip: backup_2024-05-28-1707_restaurant_895f87516211-plugins.zip.tmp: 7100 files added (on-disk size: 40482.2 KB)
0321.997 (0) Zip: backup_2024-05-28-1707_restaurant_895f87516211-plugins.zip.tmp: 7200 files added (on-disk size: 40482.2 KB)
0322.032 (0) Zip: backup_2024-05-28-1707_restaurant_895f87516211-plugins.zip.tmp: 7300 files added (on-disk size: 40482.2 KB)
0322.072 (0) Zip: backup_2024-05-28-1707_restaurant_895f87516211-plugins.zip.tmp: 7400 files added (on-disk size: 40482.2 KB)
0322.106 (0) Zip: backup_2024-05-28-1707_restaurant_895f87516211-plugins.zip.tmp: 7500 files added (on-disk size: 40482.2 KB)
0322.127 (0) Adding batch to zip file (UpdraftPlus_ZipArchive): over 1000 files added on this batch (23.6 MB, 14704 files batched, 1001 (7549) added so far); re-opening (prior size: 40482.2 KB)
0355.541 (0) Zip: backup_2024-05-28-1707_restaurant_895f87516211-plugins.zip.tmp: 7600 files added (on-disk size: 47583.1 KB)
0355.592 (0) Zip: backup_2024-05-28-1707_restaurant_895f87516211-plugins.zip.tmp: 7700 files added (on-disk size: 47583.1 KB)
0355.637 (0) Zip: backup_2024-05-28-1707_restaurant_895f87516211-plugins.zip.tmp: 7800 files added (on-disk size: 47583.1 KB)
0355.681 (0) Zip: backup_2024-05-28-1707_restaurant_895f87516211-plugins.zip.tmp: 7900 files added (on-disk size: 47583.1 KB)
0355.724 (0) Zip: backup_2024-05-28-1707_restaurant_895f87516211-plugins.zip.tmp: 8000 files added (on-disk size: 47583.1 KB)
0355.775 (0) Zip: backup_2024-05-28-1707_restaurant_895f87516211-plugins.zip.tmp: 8100 files added (on-disk size: 47583.1 KB)
0355.823 (0) Zip: backup_2024-05-28-1707_restaurant_895f87516211-plugins.zip.tmp: 8200 files added (on-disk size: 47583.1 KB)
0355.869 (0) Zip: backup_2024-05-28-1707_restaurant_895f87516211-plugins.zip.tmp: 8300 files added (on-disk size: 47583.1 KB)
0355.915 (0) Zip: backup_2024-05-28-1707_restaurant_895f87516211-plugins.zip.tmp: 8400 files added (on-disk size: 47583.1 KB)
0355.970 (0) Zip: backup_2024-05-28-1707_restaurant_895f87516211-plugins.zip.tmp: 8500 files added (on-disk size: 47583.1 KB)
0356.021 (0) Adding batch to zip file (UpdraftPlus_ZipArchive): over 1000 files added on this batch (10.1 MB, 14704 files batched, 1001 (8550) added so far); re-opening (prior size: 47583.1 KB)
0382.046 (0) Zip: backup_2024-05-28-1707_restaurant_895f87516211-plugins.zip.tmp: 8600 files added (on-disk size: 50814.2 KB)
0382.099 (0) Zip: backup_2024-05-28-1707_restaurant_895f87516211-plugins.zip.tmp: 8700 files added (on-disk size: 50814.2 KB)
0382.147 (0) Zip: backup_2024-05-28-1707_restaurant_895f87516211-plugins.zip.tmp: 8800 files added (on-disk size: 50814.2 KB)
0382.202 (0) Zip: backup_2024-05-28-1707_restaurant_895f87516211-plugins.zip.tmp: 8900 files added (on-disk size: 50814.2 KB)
0382.293 (0) Zip: backup_2024-05-28-1707_restaurant_895f87516211-plugins.zip.tmp: 9000 files added (on-disk size: 50814.2 KB)
0382.347 (0) Zip: backup_2024-05-28-1707_restaurant_895f87516211-plugins.zip.tmp: 9100 files added (on-disk size: 50814.2 KB)
0382.402 (0) Zip: backup_2024-05-28-1707_restaurant_895f87516211-plugins.zip.tmp: 9200 files added (on-disk size: 50814.2 KB)
0382.457 (0) Zip: backup_2024-05-28-1707_restaurant_895f87516211-plugins.zip.tmp: 9300 files added (on-disk size: 50814.2 KB)
0382.510 (0) Zip: backup_2024-05-28-1707_restaurant_895f87516211-plugins.zip.tmp: 9400 files added (on-disk size: 50814.2 KB)
0382.564 (0) Zip: backup_2024-05-28-1707_restaurant_895f87516211-plugins.zip.tmp: 9500 files added (on-disk size: 50814.2 KB)
0382.591 (0) Adding batch to zip file (UpdraftPlus_ZipArchive): over 1000 files added on this batch (17.8 MB, 14704 files batched, 1001 (9551) added so far); re-opening (prior size: 50814.2 KB)
0404.769 (0) Zip: backup_2024-05-28-1707_restaurant_895f87516211-plugins.zip.tmp: 9600 files added (on-disk size: 63605 KB)
0404.828 (0) Zip: backup_2024-05-28-1707_restaurant_895f87516211-plugins.zip.tmp: 9700 files added (on-disk size: 63605 KB)
0404.875 (0) Zip: backup_2024-05-28-1707_restaurant_895f87516211-plugins.zip.tmp: 9800 files added (on-disk size: 63605 KB)
0404.943 (0) Zip: backup_2024-05-28-1707_restaurant_895f87516211-plugins.zip.tmp: 9900 files added (on-disk size: 63605 KB)
0404.980 (0) Zip: backup_2024-05-28-1707_restaurant_895f87516211-plugins.zip.tmp: 10000 files added (on-disk size: 63605 KB)
0405.018 (0) Zip: backup_2024-05-28-1707_restaurant_895f87516211-plugins.zip.tmp: 10100 files added (on-disk size: 63605 KB)
0405.059 (0) Zip: backup_2024-05-28-1707_restaurant_895f87516211-plugins.zip.tmp: 10200 files added (on-disk size: 63605 KB)
0405.105 (0) Zip: backup_2024-05-28-1707_restaurant_895f87516211-plugins.zip.tmp: 10300 files added (on-disk size: 63605 KB)
0405.147 (0) Zip: backup_2024-05-28-1707_restaurant_895f87516211-plugins.zip.tmp: 10400 files added (on-disk size: 63605 KB)
0405.189 (0) Zip: backup_2024-05-28-1707_restaurant_895f87516211-plugins.zip.tmp: 10500 files added (on-disk size: 63605 KB)
0405.212 (0) Adding batch to zip file (UpdraftPlus_ZipArchive): over 1000 files added on this batch (12.3 MB, 14704 files batched, 1001 (10552) added so far); re-opening (prior size: 63605 KB)
0464.612 (0) Zip: backup_2024-05-28-1707_restaurant_895f87516211-plugins.zip.tmp: 10600 files added (on-disk size: 66670.4 KB)
0464.654 (0) Zip: backup_2024-05-28-1707_restaurant_895f87516211-plugins.zip.tmp: 10700 files added (on-disk size: 66670.4 KB)
0464.691 (0) Zip: backup_2024-05-28-1707_restaurant_895f87516211-plugins.zip.tmp: 10800 files added (on-disk size: 66670.4 KB)
0464.730 (0) Zip: backup_2024-05-28-1707_restaurant_895f87516211-plugins.zip.tmp: 10900 files added (on-disk size: 66670.4 KB)
0464.770 (0) Zip: backup_2024-05-28-1707_restaurant_895f87516211-plugins.zip.tmp: 11000 files added (on-disk size: 66670.4 KB)
0464.807 (0) Zip: backup_2024-05-28-1707_restaurant_895f87516211-plugins.zip.tmp: 11100 files added (on-disk size: 66670.4 KB)
0464.845 (0) Zip: backup_2024-05-28-1707_restaurant_895f87516211-plugins.zip.tmp: 11200 files added (on-disk size: 66670.4 KB)
0464.896 (0) Zip: backup_2024-05-28-1707_restaurant_895f87516211-plugins.zip.tmp: 11300 files added (on-disk size: 66670.4 KB)
0464.932 (0) Zip: backup_2024-05-28-1707_restaurant_895f87516211-plugins.zip.tmp: 11400 files added (on-disk size: 66670.4 KB)
0464.969 (0) Zip: backup_2024-05-28-1707_restaurant_895f87516211-plugins.zip.tmp: 11500 files added (on-disk size: 66670.4 KB)
0464.991 (0) Adding batch to zip file (UpdraftPlus_ZipArchive): over 1000 files added on this batch (4.5 MB, 14704 files batched, 1001 (11553) added so far); re-opening (prior size: 66670.4 KB)
0508.368 (0) Zip: backup_2024-05-28-1707_restaurant_895f87516211-plugins.zip.tmp: 11600 files added (on-disk size: 68189.3 KB)
0508.425 (0) Zip: backup_2024-05-28-1707_restaurant_895f87516211-plugins.zip.tmp: 11700 files added (on-disk size: 68189.3 KB)
0508.477 (0) Zip: backup_2024-05-28-1707_restaurant_895f87516211-plugins.zip.tmp: 11800 files added (on-disk size: 68189.3 KB)
0508.522 (0) Zip: backup_2024-05-28-1707_restaurant_895f87516211-plugins.zip.tmp: 11900 files added (on-disk size: 68189.3 KB)
0508.563 (0) Zip: backup_2024-05-28-1707_restaurant_895f87516211-plugins.zip.tmp: 12000 files added (on-disk size: 68189.3 KB)
0508.606 (0) Zip: backup_2024-05-28-1707_restaurant_895f87516211-plugins.zip.tmp: 12100 files added (on-disk size: 68189.3 KB)
0508.647 (0) Zip: backup_2024-05-28-1707_restaurant_895f87516211-plugins.zip.tmp: 12200 files added (on-disk size: 68189.3 KB)
0508.684 (0) Zip: backup_2024-05-28-1707_restaurant_895f87516211-plugins.zip.tmp: 12300 files added (on-disk size: 68189.3 KB)
0508.723 (0) Zip: backup_2024-05-28-1707_restaurant_895f87516211-plugins.zip.tmp: 12400 files added (on-disk size: 68189.3 KB)
0508.759 (0) Zip: backup_2024-05-28-1707_restaurant_895f87516211-plugins.zip.tmp: 12500 files added (on-disk size: 68189.3 KB)
0508.778 (0) Adding batch to zip file (UpdraftPlus_ZipArchive): over 1000 files added on this batch (16.8 MB, 14704 files batched, 1001 (12554) added so far); re-opening (prior size: 68189.3 KB)
0565.090 (0) The scheduled resumption is within 45 seconds - will reschedule
0565.093 (0) Rescheduling resumption 1: moving to 645 seconds from now (1716910038)
0565.098 (0) To decrease the likelihood of overlaps, increasing resumption interval to: 600 + 45 = 645
0565.757 (0) Zip: backup_2024-05-28-1707_restaurant_895f87516211-plugins.zip.tmp: 12600 files added (on-disk size: 74599.1 KB)
0565.841 (0) Zip: backup_2024-05-28-1707_restaurant_895f87516211-plugins.zip.tmp: 12700 files added (on-disk size: 74599.1 KB)
0565.908 (0) Zip: backup_2024-05-28-1707_restaurant_895f87516211-plugins.zip.tmp: 12800 files added (on-disk size: 74599.1 KB)
0565.986 (0) Zip: backup_2024-05-28-1707_restaurant_895f87516211-plugins.zip.tmp: 12900 files added (on-disk size: 74599.1 KB)
0566.084 (0) Zip: backup_2024-05-28-1707_restaurant_895f87516211-plugins.zip.tmp: 13000 files added (on-disk size: 74599.1 KB)
0566.133 (0) Zip: backup_2024-05-28-1707_restaurant_895f87516211-plugins.zip.tmp: 13100 files added (on-disk size: 74599.1 KB)
0566.199 (0) Zip: backup_2024-05-28-1707_restaurant_895f87516211-plugins.zip.tmp: 13200 files added (on-disk size: 74599.1 KB)
0566.234 (0) Zip: backup_2024-05-28-1707_restaurant_895f87516211-plugins.zip.tmp: 13300 files added (on-disk size: 74599.1 KB)
0566.279 (0) Zip: backup_2024-05-28-1707_restaurant_895f87516211-plugins.zip.tmp: 13400 files added (on-disk size: 74599.1 KB)
0566.322 (0) Zip: backup_2024-05-28-1707_restaurant_895f87516211-plugins.zip.tmp: 13500 files added (on-disk size: 74599.1 KB)
0566.340 (0) Adding batch to zip file (UpdraftPlus_ZipArchive): over 1000 files added on this batch (7.9 MB, 14704 files batched, 1001 (13555) added so far); re-opening (prior size: 74599.1 KB)
0615.794 (0) The time we have been running (615.8) is approaching the resumption interval (645) - increasing resumption interval to 646
0615.937 (0) Zip: backup_2024-05-28-1707_restaurant_895f87516211-plugins.zip.tmp: 13600 files added (on-disk size: 77773.9 KB)
0615.995 (0) Zip: backup_2024-05-28-1707_restaurant_895f87516211-plugins.zip.tmp: 13700 files added (on-disk size: 77773.9 KB)
0616.050 (0) Zip: backup_2024-05-28-1707_restaurant_895f87516211-plugins.zip.tmp: 13800 files added (on-disk size: 77773.9 KB)
0616.094 (0) Zip: backup_2024-05-28-1707_restaurant_895f87516211-plugins.zip.tmp: 13900 files added (on-disk size: 77773.9 KB)
0616.130 (0) Zip: backup_2024-05-28-1707_restaurant_895f87516211-plugins.zip.tmp: 14000 files added (on-disk size: 77773.9 KB)
0616.164 (0) Zip: backup_2024-05-28-1707_restaurant_895f87516211-plugins.zip.tmp: 14100 files added (on-disk size: 77773.9 KB)
0616.199 (0) Zip: backup_2024-05-28-1707_restaurant_895f87516211-plugins.zip.tmp: 14200 files added (on-disk size: 77773.9 KB)
0616.237 (0) Zip: backup_2024-05-28-1707_restaurant_895f87516211-plugins.zip.tmp: 14300 files added (on-disk size: 77773.9 KB)
0616.274 (0) Zip: backup_2024-05-28-1707_restaurant_895f87516211-plugins.zip.tmp: 14400 files added (on-disk size: 77773.9 KB)
0616.310 (0) Zip: backup_2024-05-28-1707_restaurant_895f87516211-plugins.zip.tmp: 14500 files added (on-disk size: 77773.9 KB)
0616.332 (0) Adding batch to zip file (UpdraftPlus_ZipArchive): over 1000 files added on this batch (5.4 MB, 14704 files batched, 1001 (14556) added so far); re-opening (prior size: 77773.9 KB)
0652.671 (0) The time we have been running (652.7) is approaching the resumption interval (646) - increasing resumption interval to 683
0652.974 (0) Zip: backup_2024-05-28-1707_restaurant_895f87516211-plugins.zip.tmp: 14600 files added (on-disk size: 79424.8 KB)
0653.013 (0) Zip: backup_2024-05-28-1707_restaurant_895f87516211-plugins.zip.tmp: 14700 files added (on-disk size: 79424.8 KB)
0658.235 (0) The time we have been running (658.2) is approaching the resumption interval (683) - increasing resumption interval to 689
0658.593 (0) Creating zip file manifest (backup_2024-05-28-1707_restaurant_895f87516211-plugins.zip.list-temp.tmp)
0658.741 (0) Successfully created zip file manifest (size: 1249400)
0659.285 (0) Created plugins zip (0) - 79684.7 KB in 659.2 s (120.9 KB/s) (sha1: f3d34b9e98c2fa0de57c38b49d19466cece798ea, sha256: 588d113a38b83f6dc4c5b898a26e28db2eeeefb03ef7d1159c065cde89d927e9)
0659.299 (0) Cloud backup selection (1/1): none with instance (1/1) (last)
0659.300 (0) No remote despatch: user chose no remote backup service
0659.301 (0) Recording as successfully uploaded: backup_2024-05-28-1707_restaurant_895f87516211-plugins.zip
0659.304 (0) Deleting zip manifest (backup_2024-05-28-1707_restaurant_895f87516211-plugins.zip.list.tmp)
0659.307 (0) Retain: beginning examination of existing backup sets; user setting: retain_files=2, retain_db=2
0659.309 (0) Number of backup sets in history: 2; groups (db): 1
0659.310 (0) Examining (for databases) backup set with group_id=0, nonce=491d14c5e961, datestamp=1716831202 (May 27 2024 17:33:22)
0659.311 (0) This backup set remains non-empty (f=1/d=1); will retain in history
0659.312 (0) Examining (for databases) backup set with group_id=0, nonce=0ec00171cb5c, datestamp=1716545484 (May 24 2024 10:11:24)
0659.312 (0) This backup set remains non-empty (f=1/d=1); will retain in history
0659.312 (0) Number of backup sets in history: 2; groups (files): 1
0659.314 (0) Examining (for files) backup set with nonce=491d14c5e961, datestamp=1716831202 (May 27 2024 17:33:22)
0659.314 (0) This backup set remains non-empty (f=1/d=1); will retain in history
0659.315 (0) Examining (for files) backup set with nonce=0ec00171cb5c, datestamp=1716545484 (May 24 2024 10:11:24)
0659.315 (0) This backup set remains non-empty (f=1/d=1); will retain in history
0659.315 (0) Retain: saving new backup history (sets now: 2) and finishing retain operation
0659.323 (0) Beginning creation of dump of themes (split every: 400 MB)
0659.416 (0) Total entities for the zip file: 54 directories, 433 files (0 skipped as non-modified), 14.7 MB
0659.473 (0) Zip: backup_2024-05-28-1707_restaurant_895f87516211-themes.zip.tmp: 100 files added (on-disk size: 0 KB)
0659.507 (0) Zip: backup_2024-05-28-1707_restaurant_895f87516211-themes.zip.tmp: 200 files added (on-disk size: 0 KB)
0659.540 (0) Zip: backup_2024-05-28-1707_restaurant_895f87516211-themes.zip.tmp: 300 files added (on-disk size: 0 KB)
0659.572 (0) Zip: backup_2024-05-28-1707_restaurant_895f87516211-themes.zip.tmp: 400 files added (on-disk size: 0 KB)
0669.704 (0) The time we have been running (669.7) is approaching the resumption interval (689) - increasing resumption interval to 700
0669.721 (0) Creating zip file manifest (backup_2024-05-28-1707_restaurant_895f87516211-themes.zip.list-temp.tmp)
0669.738 (0) Successfully created zip file manifest (size: 29644)
0669.826 (0) Created themes zip (0) - 12199.8 KB in 10.5 s (1162.4 KB/s) (sha1: 7a8061868fdcf95cc7f2008af65ae001cfea78f7, sha256: b2ef963ea691925617a6bd48740a419739794e4c624a6067195dce91adc723b5)
0669.832 (0) Cloud backup selection (1/1): none with instance (1/1) (last)
0669.834 (0) No remote despatch: user chose no remote backup service
0669.837 (0) Recording as successfully uploaded: backup_2024-05-28-1707_restaurant_895f87516211-themes.zip
0669.841 (0) Deleting zip manifest (backup_2024-05-28-1707_restaurant_895f87516211-themes.zip.list.tmp)
0669.851 (0) Retain: beginning examination of existing backup sets; user setting: retain_files=2, retain_db=2
0669.854 (0) Number of backup sets in history: 2; groups (db): 1
0669.855 (0) Examining (for databases) backup set with group_id=0, nonce=491d14c5e961, datestamp=1716831202 (May 27 2024 17:33:22)
0669.856 (0) This backup set remains non-empty (f=1/d=1); will retain in history
0669.859 (0) Examining (for databases) backup set with group_id=0, nonce=0ec00171cb5c, datestamp=1716545484 (May 24 2024 10:11:24)
0669.859 (0) This backup set remains non-empty (f=1/d=1); will retain in history
0669.859 (0) Number of backup sets in history: 2; groups (files): 1
0669.860 (0) Examining (for files) backup set with nonce=491d14c5e961, datestamp=1716831202 (May 27 2024 17:33:22)
0669.860 (0) This backup set remains non-empty (f=1/d=1); will retain in history
0669.862 (0) Examining (for files) backup set with nonce=0ec00171cb5c, datestamp=1716545484 (May 24 2024 10:11:24)
0669.862 (0) This backup set remains non-empty (f=1/d=1); will retain in history
0669.862 (0) Retain: saving new backup history (sets now: 2) and finishing retain operation
0669.870 (0) Exclusion option setting (uploads): backup*,*backups,backwpup*,wp-clone,snapshots
0669.872 (0) Looking for candidates to backup in: C:\xampp\htdocs\restaurant/wp-content/uploads
0669.873 (0) finding files: 2024: adding to list (1)
0669.875 (0) finding files: edd: adding to list (2)
0669.877 (0) finding files: wc-logs: adding to list (3)
0669.878 (0) finding files: woocommerce-placeholder.png: adding to list (4)
0669.880 (0) finding files: woocommerce_uploads: adding to list (5)
0669.881 (0) Beginning creation of dump of uploads (split every: 400 MB)
0669.894 (0) Total entities for the zip file: 5 directories, 24 files (0 skipped as non-modified), 27.6 MB
0675.134 (0) The time we have been running (675.1) is approaching the resumption interval (700) - increasing resumption interval to 706
0675.146 (0) Creating zip file manifest (backup_2024-05-28-1707_restaurant_895f87516211-uploads.zip.list-temp.tmp)
0675.153 (0) Successfully created zip file manifest (size: 1221)
0675.320 (0) Created uploads zip (0) - 22610 KB in 5.4 s (4161.9 KB/s) (sha1: 8d7a283610509213f22552b9657ffc5b7e6cce4b, sha256: e2bdc1d108f9dfa6ab29076b3d234adb10ba1700eef5d3aabcbfdabf533b86ee)
0675.327 (0) Cloud backup selection (1/1): none with instance (1/1) (last)
0675.329 (0) No remote despatch: user chose no remote backup service
0675.330 (0) Recording as successfully uploaded: backup_2024-05-28-1707_restaurant_895f87516211-uploads.zip
0675.333 (0) Deleting zip manifest (backup_2024-05-28-1707_restaurant_895f87516211-uploads.zip.list.tmp)
0675.336 (0) Retain: beginning examination of existing backup sets; user setting: retain_files=2, retain_db=2
0675.338 (0) Number of backup sets in history: 2; groups (db): 1
0675.340 (0) Examining (for databases) backup set with group_id=0, nonce=491d14c5e961, datestamp=1716831202 (May 27 2024 17:33:22)
0675.342 (0) This backup set remains non-empty (f=1/d=1); will retain in history
0675.344 (0) Examining (for databases) backup set with group_id=0, nonce=0ec00171cb5c, datestamp=1716545484 (May 24 2024 10:11:24)
0675.344 (0) This backup set remains non-empty (f=1/d=1); will retain in history
0675.344 (0) Number of backup sets in history: 2; groups (files): 1
0675.345 (0) Examining (for files) backup set with nonce=491d14c5e961, datestamp=1716831202 (May 27 2024 17:33:22)
0675.345 (0) This backup set remains non-empty (f=1/d=1); will retain in history
0675.347 (0) Examining (for files) backup set with nonce=0ec00171cb5c, datestamp=1716545484 (May 24 2024 10:11:24)
0675.347 (0) This backup set remains non-empty (f=1/d=1); will retain in history
0675.347 (0) Retain: saving new backup history (sets now: 2) and finishing retain operation
0675.358 (0) Beginning creation of dump of mu-plugins (split every: 400 MB)
0675.360 (0) Does not exist: C:\xampp\htdocs\restaurant/wp-content/mu-plugins
0675.362 (0) There are no mu-plugins to backup. Will not raise an error.
0675.363 (0) mu-plugins: create_zip returned an error
0675.366 (0) Beginning backup of other directories found in the content directory (index: 0)
0675.367 (0) Exclusion option setting (others): upgrade,cache,updraft,backup*,*backups,mysql.sql,debug.log
0675.369 (0) Looking for candidates to backup in: C:\xampp\htdocs\restaurant/wp-content
0675.370 (0) finding files: index.php: adding to list (1)
0675.372 (0) finding files: languages: adding to list (2)
0675.374 (0) finding files: plugins: skipping: this is the plugins directory
0675.376 (0) finding files: themes: skipping: this is the themes directory
0675.377 (0) finding files: updraft: skipping: this is the updraft directory
0675.378 (0) finding files: upgrade: skipping: excluded by options
0675.380 (0) finding files: upgrade-temp-backup: adding to list (3)
0675.381 (0) finding files: uploads: skipping: this is the uploads directory
0675.485 (0) Total entities for the zip file: 4 directories, 463 files (0 skipped as non-modified), 14 MB
0675.529 (0) Zip: backup_2024-05-28-1707_restaurant_895f87516211-others.zip.tmp: 100 files added (on-disk size: 0 KB)
0675.584 (0) Zip: backup_2024-05-28-1707_restaurant_895f87516211-others.zip.tmp: 200 files added (on-disk size: 0 KB)
0675.637 (0) Zip: backup_2024-05-28-1707_restaurant_895f87516211-others.zip.tmp: 300 files added (on-disk size: 0 KB)
0675.682 (0) Zip: backup_2024-05-28-1707_restaurant_895f87516211-others.zip.tmp: 400 files added (on-disk size: 0 KB)
0683.549 (0) The time we have been running (683.5) is approaching the resumption interval (706) - increasing resumption interval to 714
0683.568 (0) Creating zip file manifest (backup_2024-05-28-1707_restaurant_895f87516211-others.zip.list-temp.tmp)
0683.577 (0) Successfully created zip file manifest (size: 36099)
0683.633 (0) Created others zip (0) - 4050.4 KB in 8.2 s (491.3 KB/s) (sha1: ca0dc74110fe09992d6c89b714c855135226e8c9, sha256: 7c9d12153b7168f5fa373cc49c17738209f53924a6523be5917723619550da47)
0683.641 (0) Cloud backup selection (1/1): none with instance (1/1) (last)
0683.643 (0) No remote despatch: user chose no remote backup service
0683.645 (0) Recording as successfully uploaded: backup_2024-05-28-1707_restaurant_895f87516211-others.zip
0683.650 (0) Deleting zip manifest (backup_2024-05-28-1707_restaurant_895f87516211-others.zip.list.tmp)
0683.655 (0) Retain: beginning examination of existing backup sets; user setting: retain_files=2, retain_db=2
0683.658 (0) Number of backup sets in history: 2; groups (db): 1
0683.660 (0) Examining (for databases) backup set with group_id=0, nonce=491d14c5e961, datestamp=1716831202 (May 27 2024 17:33:22)
0683.662 (0) This backup set remains non-empty (f=1/d=1); will retain in history
0683.663 (0) Examining (for databases) backup set with group_id=0, nonce=0ec00171cb5c, datestamp=1716545484 (May 24 2024 10:11:24)
0683.663 (0) This backup set remains non-empty (f=1/d=1); will retain in history
0683.664 (0) Number of backup sets in history: 2; groups (files): 1
0683.665 (0) Examining (for files) backup set with nonce=491d14c5e961, datestamp=1716831202 (May 27 2024 17:33:22)
0683.665 (0) This backup set remains non-empty (f=1/d=1); will retain in history
0683.667 (0) Examining (for files) backup set with nonce=0ec00171cb5c, datestamp=1716545484 (May 24 2024 10:11:24)
0683.667 (0) This backup set remains non-empty (f=1/d=1); will retain in history
0683.667 (0) Retain: saving new backup history (sets now: 2) and finishing retain operation
0683.679 (0) Saving backup status to database (elements: 8)
0683.682 (0) Beginning creation of database dump (WordPress DB)
0683.684 (0) SQL compatibility mode is: NO_ZERO_IN_DATE,NO_ENGINE_SUBSTITUTION
0683.726 (0) Table wp_options: Total expected rows (via COUNT): 242
0683.727 (0) Table is relatively small; fetch_rows will thus be: 250 (allow_further_reductions=1, is_first_fetch=1, known_bigger_than_table=1)
0683.757 (0) Table wp_options: Rows added in this batch (next record: 624): 238 (uncompressed bytes in this segment=687747) in 0.06 seconds
0683.767 (0) Table wp_options: finishing file(s) (2, 141.8 KB)
0683.798 (0) Table wp_users: Total expected rows (via COUNT): 1
0683.799 (0) Table is relatively small; fetch_rows will thus be: 20 (allow_further_reductions=1, is_first_fetch=1, known_bigger_than_table=1)
0683.803 (0) Table wp_users: Rows added in this batch (next record: 1): 1 (uncompressed bytes in this segment=1167) in 0.03 seconds
0683.815 (0) Table wp_users: finishing file(s) (2, 0.6 KB)
0683.844 (0) Table wp_usermeta: Total expected rows (via COUNT): 20
0683.845 (0) Table is relatively small; fetch_rows will thus be: 20 (allow_further_reductions=1, is_first_fetch=1, known_bigger_than_table=1)
0683.847 (0) Table wp_usermeta: Rows added in this batch (next record: 20): 20 (uncompressed bytes in this segment=1966) in 0.03 seconds
0683.859 (0) Table wp_usermeta: finishing file(s) (2, 1.1 KB)
0683.888 (0) Table wp_actionscheduler_actions: Total expected rows (via COUNT): 1
0683.890 (0) Table is relatively small; fetch_rows will thus be: 20 (allow_further_reductions=1, is_first_fetch=1, known_bigger_than_table=1)
0683.892 (0) Table wp_actionscheduler_actions: Rows added in this batch (next record: 8): 1 (uncompressed bytes in this segment=1922) in 0.03 seconds
0683.903 (0) Table wp_actionscheduler_actions: finishing file(s) (2, 0.7 KB)
0683.924 (0) Table wp_actionscheduler_claims: Total expected rows (via COUNT): 0
0683.927 (0) Table wp_actionscheduler_claims: Rows added in this batch (next record: -1): 0 (uncompressed bytes in this segment=625) in 0.02 seconds
0683.935 (0) Table wp_actionscheduler_claims: finishing file(s) (2, 0.4 KB)
0683.956 (0) Table wp_actionscheduler_groups: Total expected rows (via COUNT): 1
0683.957 (0) Table is relatively small; fetch_rows will thus be: 20 (allow_further_reductions=1, is_first_fetch=1, known_bigger_than_table=1)
0683.960 (0) Table wp_actionscheduler_groups: Rows added in this batch (next record: 1): 1 (uncompressed bytes in this segment=658) in 0.02 seconds
0683.968 (0) Table wp_actionscheduler_groups: finishing file(s) (2, 0.4 KB)
0683.991 (0) Table wp_actionscheduler_logs: Total expected rows (via COUNT): 3
0683.993 (0) Table is relatively small; fetch_rows will thus be: 20 (allow_further_reductions=1, is_first_fetch=1, known_bigger_than_table=1)
0683.996 (0) Table wp_actionscheduler_logs: Rows added in this batch (next record: 3): 3 (uncompressed bytes in this segment=1047) in 0.02 seconds
0684.006 (0) The time we have been running (684) is approaching the resumption interval (714) - increasing resumption interval to 715
0684.010 (0) Table wp_actionscheduler_logs: finishing file(s) (2, 0.5 KB)
0684.037 (0) Table wp_commentmeta: Total expected rows (via COUNT): 0
0684.040 (0) Table wp_commentmeta: Rows added in this batch (next record: -1): 0 (uncompressed bytes in this segment=634) in 0.02 seconds
0684.050 (0) Table wp_commentmeta: finishing file(s) (2, 0.4 KB)
0684.073 (0) Table wp_comments: Total expected rows (via COUNT): 0
0684.078 (0) Table wp_comments: Rows added in this batch (next record: -1): 0 (uncompressed bytes in this segment=1466) in 0.02 seconds
0684.088 (0) Table wp_comments: finishing file(s) (2, 0.5 KB)
0684.117 (0) Table wp_links: Total expected rows (via COUNT): 0
0684.120 (0) Table wp_links: Rows added in this batch (next record: -1): 0 (uncompressed bytes in this segment=1027) in 0.03 seconds
0684.132 (0) Table wp_links: finishing file(s) (2, 0.5 KB)
0684.173 (0) Table wp_postmeta: Total expected rows (via COUNT): 45
0684.174 (0) Table is relatively small; fetch_rows will thus be: 50 (allow_further_reductions=1, is_first_fetch=1, known_bigger_than_table=1)
0684.179 (0) Table wp_postmeta: Rows added in this batch (next record: 55): 45 (uncompressed bytes in this segment=8692) in 0.03 seconds
0684.191 (0) Table wp_postmeta: finishing file(s) (2, 1.4 KB)
0684.218 (0) Table wp_posts: Total expected rows (via COUNT): 42
0684.220 (0) Table is relatively small; fetch_rows will thus be: 50 (allow_further_reductions=1, is_first_fetch=1, known_bigger_than_table=1)
0684.225 (0) Table wp_posts: Rows added in this batch (next record: 51): 42 (uncompressed bytes in this segment=63319) in 0.03 seconds
0684.238 (0) Table wp_posts: finishing file(s) (2, 9.8 KB)
0684.259 (0) Table wp_term_relationships: Total expected rows (approximate): 2
0684.264 (0) Table wp_term_relationships: Rows added in this batch (next record: 100000): 2 (uncompressed bytes in this segment=709) in 0.02 seconds
0684.274 (0) Table wp_term_relationships: finishing file(s) (2, 0.4 KB)
0684.304 (0) Table wp_term_taxonomy: Total expected rows (via COUNT): 2
0684.306 (0) Table is relatively small; fetch_rows will thus be: 20 (allow_further_reductions=1, is_first_fetch=1, known_bigger_than_table=1)
0684.311 (0) Table wp_term_taxonomy: Rows added in this batch (next record: 2): 2 (uncompressed bytes in this segment=889) in 0.03 seconds
0684.322 (0) Table wp_term_taxonomy: finishing file(s) (2, 0.5 KB)
0684.355 (0) Table wp_termmeta: Total expected rows (via COUNT): 0
0684.359 (0) Table wp_termmeta: Rows added in this batch (next record: -1): 0 (uncompressed bytes in this segment=607) in 0.03 seconds
0684.391 (0) Table wp_termmeta: finishing file(s) (2, 0.4 KB)
0684.420 (0) Table wp_terms: Total expected rows (via COUNT): 2
0684.422 (0) Table is relatively small; fetch_rows will thus be: 20 (allow_further_reductions=1, is_first_fetch=1, known_bigger_than_table=1)
0684.426 (0) Table wp_terms: Rows added in this batch (next record: 2): 2 (uncompressed bytes in this segment=716) in 0.03 seconds
0684.438 (0) Table wp_terms: finishing file(s) (2, 0.4 KB)
0684.468 (0) Table wp_rank_math_internal_links: Total expected rows (via COUNT): 0
0684.473 (0) Table wp_rank_math_internal_links: Rows added in this batch (next record: -1): 0 (uncompressed bytes in this segment=693) in 0.03 seconds
0684.484 (0) Table wp_rank_math_internal_links: finishing file(s) (2, 0.4 KB)
0684.514 (0) Table wp_rank_math_internal_meta: Total expected rows (via COUNT): 0
0684.519 (0) Table wp_rank_math_internal_meta: Rows added in this batch (next record: -1): 0 (uncompressed bytes in this segment=647) in 0.03 seconds
0684.529 (0) Table wp_rank_math_internal_meta: finishing file(s) (2, 0.3 KB)
0684.531 (0) PHP event: code E_WARNING: filemtime(): stat failed for C:\xampp\htdocs\restaurant/wp-content/updraft/backup_2024-05-28-1707_restaurant_895f87516211-db.gz (line 1925, C:\xampp\htdocs\restaurant\wp-content\plugins\updraftplus\backup.php)
0684.535 (0) backup_2024-05-28-1707_restaurant_895f87516211-db-table-wp_options.table.tmpr625.gz (1/18/fopen): adding to final database dump
0684.542 (0) backup_2024-05-28-1707_restaurant_895f87516211-db-table-wp_options.table.gz (2/18/fopen): adding to final database dump
0684.543 (0) backup_2024-05-28-1707_restaurant_895f87516211-db-table-wp_users.table.tmpr2.gz (3/18/fopen): adding to final database dump
0684.545 (0) backup_2024-05-28-1707_restaurant_895f87516211-db-table-wp_users.table.gz (4/18/fopen): adding to final database dump
0684.547 (0) backup_2024-05-28-1707_restaurant_895f87516211-db-table-wp_usermeta.table.tmpr21.gz (5/18/fopen): adding to final database dump
0684.550 (0) backup_2024-05-28-1707_restaurant_895f87516211-db-table-wp_usermeta.table.gz (6/18/fopen): adding to final database dump
0684.553 (0) backup_2024-05-28-1707_restaurant_895f87516211-db-table-wp_actionscheduler_actions.table.tmpr9.gz (7/18/fopen): adding to final database dump
0684.555 (0) backup_2024-05-28-1707_restaurant_895f87516211-db-table-wp_actionscheduler_actions.table.gz (8/18/fopen): adding to final database dump
0684.557 (0) backup_2024-05-28-1707_restaurant_895f87516211-db-table-wp_actionscheduler_claims.table.tmpr0.gz (9/18/fopen): adding to final database dump
0684.559 (0) backup_2024-05-28-1707_restaurant_895f87516211-db-table-wp_actionscheduler_claims.table.gz (10/18/fopen): adding to final database dump
0684.561 (0) backup_2024-05-28-1707_restaurant_895f87516211-db-table-wp_actionscheduler_groups.table.tmpr2.gz (11/18/fopen): adding to final database dump
0684.563 (0) backup_2024-05-28-1707_restaurant_895f87516211-db-table-wp_actionscheduler_groups.table.gz (12/18/fopen): adding to final database dump
0684.565 (0) backup_2024-05-28-1707_restaurant_895f87516211-db-table-wp_actionscheduler_logs.table.tmpr4.gz (13/18/fopen): adding to final database dump
0684.568 (0) backup_2024-05-28-1707_restaurant_895f87516211-db-table-wp_actionscheduler_logs.table.gz (14/18/fopen): adding to final database dump
0684.570 (0) backup_2024-05-28-1707_restaurant_895f87516211-db-table-wp_commentmeta.table.tmpr0.gz (15/18/fopen): adding to final database dump
0684.572 (0) backup_2024-05-28-1707_restaurant_895f87516211-db-table-wp_commentmeta.table.gz (16/18/fopen): adding to final database dump
0684.575 (0) backup_2024-05-28-1707_restaurant_895f87516211-db-table-wp_comments.table.tmpr0.gz (17/18/fopen): adding to final database dump
0684.577 (0) backup_2024-05-28-1707_restaurant_895f87516211-db-table-wp_comments.table.gz (18/18/fopen): adding to final database dump
0684.579 (0) backup_2024-05-28-1707_restaurant_895f87516211-db-table-wp_links.table.tmpr0.gz (19/18/fopen): adding to final database dump
0684.581 (0) backup_2024-05-28-1707_restaurant_895f87516211-db-table-wp_links.table.gz (20/18/fopen): adding to final database dump
0684.583 (0) backup_2024-05-28-1707_restaurant_895f87516211-db-table-wp_postmeta.table.tmpr56.gz (21/18/fopen): adding to final database dump
0684.586 (0) backup_2024-05-28-1707_restaurant_895f87516211-db-table-wp_postmeta.table.gz (22/18/fopen): adding to final database dump
0684.588 (0) backup_2024-05-28-1707_restaurant_895f87516211-db-table-wp_posts.table.tmpr52.gz (23/18/fopen): adding to final database dump
0684.590 (0) backup_2024-05-28-1707_restaurant_895f87516211-db-table-wp_posts.table.gz (24/18/fopen): adding to final database dump
0684.592 (0) backup_2024-05-28-1707_restaurant_895f87516211-db-table-wp_term_relationships.table.tmpr100001.gz (25/18/fopen): adding to final database dump
0684.594 (0) backup_2024-05-28-1707_restaurant_895f87516211-db-table-wp_term_relationships.table.gz (26/18/fopen): adding to final database dump
0684.596 (0) backup_2024-05-28-1707_restaurant_895f87516211-db-table-wp_term_taxonomy.table.tmpr3.gz (27/18/fopen): adding to final database dump
0684.598 (0) backup_2024-05-28-1707_restaurant_895f87516211-db-table-wp_term_taxonomy.table.gz (28/18/fopen): adding to final database dump
0684.600 (0) backup_2024-05-28-1707_restaurant_895f87516211-db-table-wp_termmeta.table.tmpr0.gz (29/18/fopen): adding to final database dump
0684.602 (0) backup_2024-05-28-1707_restaurant_895f87516211-db-table-wp_termmeta.table.gz (30/18/fopen): adding to final database dump
0684.604 (0) backup_2024-05-28-1707_restaurant_895f87516211-db-table-wp_terms.table.tmpr3.gz (31/18/fopen): adding to final database dump
0684.606 (0) backup_2024-05-28-1707_restaurant_895f87516211-db-table-wp_terms.table.gz (32/18/fopen): adding to final database dump
0684.608 (0) backup_2024-05-28-1707_restaurant_895f87516211-db-table-wp_rank_math_internal_links.table.tmpr0.gz (33/18/fopen): adding to final database dump
0684.610 (0) backup_2024-05-28-1707_restaurant_895f87516211-db-table-wp_rank_math_internal_links.table.gz (34/18/fopen): adding to final database dump
0684.612 (0) backup_2024-05-28-1707_restaurant_895f87516211-db-table-wp_rank_math_internal_meta.table.tmpr0.gz (35/18/fopen): adding to final database dump
0684.613 (0) backup_2024-05-28-1707_restaurant_895f87516211-db-table-wp_rank_math_internal_meta.table.gz (36/18/fopen): adding to final database dump
0684.675 (0) backup_2024-05-28-1707_restaurant_895f87516211-db.gz: finished writing out complete database file (160.6 KB)
0684.701 (0) Total database tables backed up: 18 (backup_2024-05-28-1707_restaurant_895f87516211-db.gz, size: 164591, sha1: 54c448bad6a76903efcfff7e0e1a83d77ccee581, sha256: 11bc41ef600dc3570ee443d9f9d2dc803557e6920885fa162bbc1120eee314f3)
0684.712 (0) backup_2024-05-28-1707_restaurant_895f87516211-plugins.zip: plugins: This file has already been successfully uploaded
0684.713 (0) backup_2024-05-28-1707_restaurant_895f87516211-themes.zip: themes: This file has already been successfully uploaded
0684.715 (0) backup_2024-05-28-1707_restaurant_895f87516211-uploads.zip: uploads: This file has already been successfully uploaded
0684.716 (0) backup_2024-05-28-1707_restaurant_895f87516211-others.zip: others: This file has already been successfully uploaded
0684.718 (0) backup_2024-05-28-1707_restaurant_895f87516211-db.gz: db: This file has not yet been successfully uploaded: will queue
0684.719 (0) Saving backup history. Total backup size: 115.9 MB
0684.724 (0) Requesting upload of the files that have not yet been successfully uploaded (1)
0684.728 (0) Cloud backup selection (1/1): none with instance (1/1) (last)
0684.730 (0) No remote despatch: user chose no remote backup service
0684.731 (0) Recording as successfully uploaded: backup_2024-05-28-1707_restaurant_895f87516211-db.gz
0684.736 (0) Retain: beginning examination of existing backup sets; user setting: retain_files=2, retain_db=2
0684.738 (0) Number of backup sets in history: 3; groups (db): 1
0684.740 (0) Examining (for databases) backup set with group_id=0, nonce=895f87516211, datestamp=1716908828 (May 28 2024 15:07:08)
0684.740 (0) This backup set is the backup set just made, so will not be deleted.
0684.740 (0) Examining (for databases) backup set with group_id=0, nonce=491d14c5e961, datestamp=1716831202 (May 27 2024 17:33:22)
0684.740 (0) This backup set remains non-empty (f=1/d=1); will retain in history
0684.742 (0) Examining (for databases) backup set with group_id=0, nonce=0ec00171cb5c, datestamp=1716545484 (May 24 2024 10:11:24)
0684.742 (0) 1716545484: db: this set includes a database (backup_2024-05-24-1211_restaurant_0ec00171cb5c-db.gz); db count is now 2
0684.742 (0) 1716545484: db: over retain limit (2); will delete this database
0684.742 (0) Delete file: backup_2024-05-24-1211_restaurant_0ec00171cb5c-db.gz, service=none
0684.743 (0) Deleting local copy (backup_2024-05-24-1211_restaurant_0ec00171cb5c-db.gz)
0684.747 (0) This backup set remains non-empty (f=1/d=0); will retain in history
0684.748 (0) Number of backup sets in history: 3; groups (files): 1
0684.750 (0) Examining (for files) backup set with nonce=895f87516211, datestamp=1716908828 (May 28 2024 15:07:08)
0684.750 (0) This backup set is the backup set just made, so will not be deleted.
0684.752 (0) This backup set is the backup set just made, so will not be deleted.
0684.752 (0) This backup set is the backup set just made, so will not be deleted.
0684.752 (0) This backup set is the backup set just made, so will not be deleted.
0684.753 (0) This backup set remains non-empty (f=1/d=1); will retain in history
0684.755 (0) Examining (for files) backup set with nonce=491d14c5e961, datestamp=1716831202 (May 27 2024 17:33:22)
0684.755 (0) This backup set remains non-empty (f=1/d=1); will retain in history
0684.755 (0) Examining (for files) backup set with nonce=0ec00171cb5c, datestamp=1716545484 (May 24 2024 10:11:24)
0684.755 (0) plugins: over retain limit (2); will delete this file entity
0684.755 (0) themes: over retain limit (2); will delete this file entity
0684.755 (0) uploads: over retain limit (2); will delete this file entity
0684.755 (0) others: over retain limit (2); will delete this file entity
0684.756 (0) Delete file: backup_2024-05-24-1211_restaurant_0ec00171cb5c-plugins.zip, service=none
0684.757 (0) Deleting local copy (backup_2024-05-24-1211_restaurant_0ec00171cb5c-plugins.zip)
0684.761 (0) Delete file: backup_2024-05-24-1211_restaurant_0ec00171cb5c-themes.zip, service=none
0684.763 (0) Deleting local copy (backup_2024-05-24-1211_restaurant_0ec00171cb5c-themes.zip)
0684.767 (0) Delete file: backup_2024-05-24-1211_restaurant_0ec00171cb5c-uploads.zip, service=none
0684.769 (0) Deleting local copy (backup_2024-05-24-1211_restaurant_0ec00171cb5c-uploads.zip)
0684.773 (0) Delete file: backup_2024-05-24-1211_restaurant_0ec00171cb5c-others.zip, service=none
0684.775 (0) Deleting local copy (backup_2024-05-24-1211_restaurant_0ec00171cb5c-others.zip)
0684.779 (0) This backup set is now empty; will remove from history
0684.781 (0) Deleting log file (log.0ec00171cb5c.txt)
0684.783 (0) Retain: saving new backup history (sets now: 2) and finishing retain operation
0684.793 (0) Resume backup (895f87516211, 0): finish run
0684.800 (0) Decremented the semaphore (fd) by 1
0684.805 (0) Semaphore (fd) unlocked
0684.811 (0) There were no errors in the uploads, so the 'resume' event (1) is being unscheduled
0684.817 (0) The backup succeeded and is now complete
0684.820 (0) No email will/can be sent - the user has not configured an email address.
0684.821 (0) La sauvegarde a réussi et est maintenant terminée
